R Practice: Tidy Data and Joins
…
bird_obs_subset <- bird_obs_subset %>% 
  mutate(observer = if_else(condition = observer == "Josh Burns", 
                            true = "J. Burns", 
                            false = observer))

unique(bird_obs_subset$observer)

[1] "B. Rambo"  "J. Lemmer" "D. Stuart" "C. Putnam" "S. Lerman" "J. Burns" 
[7] NA         

bird_obs_subset$survey_month <- lubridate::month(bird_obs_subset$survey_date)

bird_obs_subset %>% mutate(survey_month = as.factor(survey_month))

# A tibble: 40,633 × 6
   survey_date         common_name    park_name bird_count observer survey_month
   <dttm>              <chr>          <chr>          <dbl> <chr>    <fct>       
 1 2000-12-21 00:00:00 House Sparrow  Lindo              4 B. Rambo 12          
 2 2000-12-21 00:00:00 House Sparrow  Lindo             10 B. Rambo 12          
 3 2000-12-21 00:00:00 Audubon's War… Lindo              2 B. Rambo 12          
 4 2000-12-21 00:00:00 Rock Dove      Lindo              2 B. Rambo 12          
 5 2000-12-21 00:00:00 Great-tailed … Lindo              2 B. Rambo 12          
 6 2000-12-21 00:00:00 White-crowned… Lindo              3 B. Rambo 12          
 7 2000-12-21 00:00:00 White-crowned… Lindo              3 B. Rambo 12          
 8 2000-12-21 00:00:00 Great-tailed … Lindo              2 B. Rambo 12          
 9 2000-12-21 00:00:00 Rock Dove      Lindo              2 B. Rambo 12          
10 2000-12-21 00:00:00 Mourning Dove  Lindo              3 B. Rambo 12          
# ℹ 40,623 more rows

bird_obs_subset %>% dplyr::relocate(survey_month, .after = survey_date)

# A tibble: 40,633 × 6
   survey_date         survey_month common_name    park_name bird_count observer
   <dttm>                     <dbl> <chr>          <chr>          <dbl> <chr>   
 1 2000-12-21 00:00:00           12 House Sparrow  Lindo              4 B. Rambo
 2 2000-12-21 00:00:00           12 House Sparrow  Lindo             10 B. Rambo
 3 2000-12-21 00:00:00           12 Audubon's War… Lindo              2 B. Rambo
 4 2000-12-21 00:00:00           12 Rock Dove      Lindo              2 B. Rambo
 5 2000-12-21 00:00:00           12 Great-tailed … Lindo              2 B. Rambo
 6 2000-12-21 00:00:00           12 White-crowned… Lindo              3 B. Rambo
 7 2000-12-21 00:00:00           12 White-crowned… Lindo              3 B. Rambo
 8 2000-12-21 00:00:00           12 Great-tailed … Lindo              2 B. Rambo
 9 2000-12-21 00:00:00           12 Rock Dove      Lindo              2 B. Rambo
10 2000-12-21 00:00:00           12 Mourning Dove  Lindo              3 B. Rambo
# ℹ 40,623 more rows

filter(bird_obs_subset, park_name == 'Lino' & park_name == 'Orme' & park_name == 'Palomino' & park_name == 'Sonrisa')

# A tibble: 0 × 6
# ℹ 6 variables: survey_date <dttm>, common_name <chr>, park_name <chr>,
#   bird_count <dbl>, observer <chr>, survey_month <dbl>

summarise(bird_obs_subset, .by = bird_count)

# A tibble: 61 × 1
   bird_count
        <dbl>
 1          4
 2         10
 3          2
 4          3
 5          1
 6          6
 7         20
 8         12
 9          9
10         15
# ℹ 51 more rows
…
